…
la pratica
==========

I dati di partenza
------------------

Carichiamo i dati da un foglio Excel:

``` r
library(readxl)
read_excel(path = "data.xlsx")
```

    ## # A tibble: 28 x 31
    ##    X__1  `Pseudotsuga me… `Brachypodium p… `Castanea sativ…
    ##    <chr>            <dbl>            <dbl> <chr>           
    ##  1 Plot…             62.5              0   0               
    ##  2 Plot…             15                0   0               
    ##  3 Plot…             37.5              0   O               
    ##  4 Plot…              0.1             37.5 .               
    ##  5 Plot…              0                3   .               
    ##  6 Plot…              0                3   <NA>            
    ##  7 Plot…              0                3   <NA>            
    ##  8 Plot…              0.5              0   <NA>            
    ##  9 Plot…              0.1              0   0               
    ## 10 Plot…              0.5              0   0               
    ## # ... with 18 more rows, and 27 more variables: `Cirsium vulgare` <dbl>,
    ## #   `Clematis vitalba` <dbl>, `Clinopodium vulgare` <dbl>, `Crataegus
    ## #   laevigata` <dbl>, `Eupatorium cannabinum` <dbl>, `Fagus
    ## #   sylvatica` <dbl>, `Fragaria vesca` <dbl>, `Galium odoratum` <dbl>,
    ## #   `Hedera helix` <dbl>, `Hieracium racemosum` <dbl>, `Hypericum
    ## #   perforatum` <dbl>, `Lapsana communis` <dbl>, `Pinus sylvestris` <dbl>,
    ## #   `Poa pratensis` <dbl>, `Pteridium aquilinum` <dbl>, `Pulmonaria
    ## #   hirta` <dbl>, `Pyrus pyraster` <dbl>, `Quercus cerris` <dbl>,
    ## #   `Ranunculus repens` <dbl>, `Rosa canina` <dbl>, `Rubus
…
